Biostatistics Module
…
---
## tibbles (tidy tables)

- From the **tibble** package (included in the **tidyverse** package)

```r
h1n1 <- as_tibble(h1n1)
h1n1
```

```
> # A tibble: 51 x 4
>   State      Cases Deaths Population
>   <fct>      <int>  <int>      <int>
> 1 Alabama      477      0    4661900
> 2 Alaska       272      0     686293
> 3 Arizona      947     15    6500180
> 4 Arkansas     131      0    2855390
> 5 California  3161     52   36756666
> # … with 46 more rows
```
…
--

  - **`summarise()`** - summaris(z)e data

---
## Line filtering

```r
h1n1 %>% 
  filter(Deaths > 10)
```

```
> # A tibble: 8 x 4
>   State      Cases Deaths Population
>   <fct>      <int>  <int>      <int>
> 1 Arizona      947     15    6500180
> 2 California  3161     52   36756666
> 3 Florida     2915     23   18328340
> 4 Illinois    3404     17   12901563
> 5 New Jersey  1414     15    8682661
> # … with 3 more rows
```
…
```r
h1n1 %>% 
  filter(Deaths > 10 | Cases >= 1000)
```

```
> # A tibble: 13 x 4
>   State       Cases Deaths Population
>   <fct>       <int>  <int>      <int>
> 1 Arizona       947     15    6500180
> 2 California   3161     52   36756666
> 3 Connecticut  1713      8    3501252
> 4 Florida      2915     23   18328340
> 5 Hawaii       1424      3    1288198
> # … with 8 more rows
```
…
---
## Selecting columns

- Infertility after Spontaneous and Induced Abortion (case-control)

```r
library(datasets)
infert <- as_tibble(infert)
infert
```

```
> # A tibble: 248 x 8
>   education   age parity induced  case spontaneous stratum
>   <fct>     <dbl>  <dbl>   <dbl> <dbl>       <dbl>   <int>
> 1 0-5yrs       26      6       1     1           2       1
> 2 0-5yrs       42      1       1     1           0       2
> 3 0-5yrs       39      6       2     1           0       3
> 4 0-5yrs       34      4       2     1           0       4
> 5 6-11yrs      35      3       1     1           1       5
> # … with 243 more rows, and 1 more variable:
> #   pooled.stratum <dbl>
```

---
## Selecting columns

```r
infert %>% select(age, case)
```

```
> # A tibble: 248 x 2
>     age  case
>   <dbl> <dbl>
> 1    26     1
> 2    42     1
> 3    39     1
> 4    34     1
> 5    35     1
> # … with 243 more rows
```

```r
infert %>% select(education:case)
```

```
> # A tibble: 248 x 5
>   education   age parity induced  case
>   <fct>     <dbl>  <dbl>   <dbl> <dbl>
> 1 0-5yrs       26      6       1     1
> 2 0-5yrs       42      1       1     1
> 3 0-5yrs       39      6       2     1
> 4 0-5yrs       34      4       2     1
> 5 6-11yrs      35      3       1     1
> # … with 243 more rows
```

---
## Selecting columns

```r
infert %>% select(contains("stratum"))
```

```
> # A tibble: 248 x 2
>   stratum pooled.stratum
>     <int>          <dbl>
> 1       1              3
> 2       2              1
> 3       3              4
> 4       4              2
> 5       5             32
> # … with 243 more rows
```

```r
infert %>% select(-education, -age)
```

```
> # A tibble: 248 x 6
>   parity induced  case spontaneous stratum pooled.stratum
>    <dbl>   <dbl> <dbl>       <dbl>   <int>          <dbl>
> 1      6       1     1           2       1              3
> 2      1       1     1           0       2              1
> 3      6       2     1           0       3              4
> 4      4       2     1           0       4              2
> 5      3       1     1           1       5             32
> # … with 243 more rows
```

---
## Sorting dataset

```r
infert %>% arrange(age)
```

```
> # A tibble: 248 x 8
>   education   age parity induced  case spontaneous stratum
>   <fct>     <dbl>  <dbl>   <dbl> <dbl>       <dbl>   <int>
> 1 6-11yrs      21      1       0     1           1       9
> 2 12+ yrs      21      1       0     1           1      67
> 3 6-11yrs      21      1       0     0           1       9
> 4 12+ yrs      21      1       0     0           1      67
> 5 6-11yrs      21      1       1     0           0       9
> # … with 243 more rows, and 1 more variable:
> #   pooled.stratum <dbl>
```

```r
infert %>% arrange(spontaneous, desc(age))
```

```
> # A tibble: 248 x 8
>   education   age parity induced  case spontaneous stratum
>   <fct>     <dbl>  <dbl>   <dbl> <dbl>       <dbl>   <int>
> 1 6-11yrs      44      1       0     0           0      20
> 2 6-11yrs      44      1       1     0           0      20
> 3 0-5yrs       42      1       1     1           0       2
> 4 6-11yrs      42      1       1     1           0      33
> 5 0-5yrs       42      1       0     0           0       2
> # … with 243 more rows, and 1 more variable:
> #   pooled.stratum <dbl>
```

---
## Creating new variables

```r
h1n1 <- h1n1 %>%
  mutate(Population = round(Population/1000, 0))
print(h1n1, n = 10)
```

```
> # A tibble: 51 x 4
>    State                Cases Deaths Population
>    <fct>                <int>  <int>      <dbl>
>  1 Alabama                477      0       4662
>  2 Alaska                 272      0        686
>  3 Arizona                947     15       6500
>  4 Arkansas               131      0       2855
>  5 California            3161     52      36757
>  6 Colorado               171      0       4939
>  7 Connecticut           1713      8       3501
>  8 Delaware               381      0        873
>  9 District of Columbia    45      0        592
> 10 Florida               2915     23      18328
> # … with 41 more rows
```

---
## Creating new variables

```r
h1n1 %>%
  mutate(Rate = Deaths/Cases) %>% 
  print(n = 10)
```

```
> # A tibble: 51 x 5
>    State                Cases Deaths Population    Rate
>    <fct>                <int>  <int>      <dbl>   <dbl>
>  1 Alabama                477      0       4662 0      
>  2 Alaska                 272      0        686 0      
>  3 Arizona                947     15       6500 0.0158 
>  4 Arkansas               131      0       2855 0      
>  5 California            3161     52      36757 0.0165 
>  6 Colorado               171      0       4939 0      
>  7 Connecticut           1713      8       3501 0.00467
>  8 Delaware               381      0        873 0      
>  9 District of Columbia    45      0        592 0      
> 10 Florida               2915     23      18328 0.00789
> # … with 41 more rows
```

---
## Creating new variables

```r
h1n1 %>%
  mutate(aux = paste0(round(Deaths/Cases*100, 1), "%"),
         Rate = ifelse(Deaths == 0, "No deaths", aux)) %>% 
  print(n = 10)
```

```
> # A tibble: 51 x 6
>    State              Cases Deaths Population aux   Rate    
>    <fct>              <int>  <int>      <dbl> <chr> <chr>   
>  1 Alabama              477      0       4662 0%    No deat…
>  2 Alaska               272      0        686 0%    No deat…
>  3 Arizona              947     15       6500 1.6%  1.6%    
>  4 Arkansas             131      0       2855 0%    No deat…
>  5 California          3161     52      36757 1.6%  1.6%    
>  6 Colorado             171      0       4939 0%    No deat…
>  7 Connecticut         1713      8       3501 0.5%  0.5%    
>  8 Delaware             381      0        873 0%    No deat…
>  9 District of Colum…    45      0        592 0%    No deat…
> 10 Florida             2915     23      18328 0.8%  0.8%    
> # … with 41 more rows
```

---
## Creating new variables

```r
h1n1 <- h1n1 %>%
  mutate(id = row_number()) %>% 
  unite(col = "state_id", id, State, sep = "_")
h1n1 %>% print(n = 10)
```

```
> # A tibble: 51 x 4
>    state_id               Cases Deaths Population
>    <chr>                  <int>  <int>      <dbl>
>  1 1_Alabama                477      0       4662
>  2 2_Alaska                 272      0        686
>  3 3_Arizona                947     15       6500
>  4 4_Arkansas               131      0       2855
>  5 5_California            3161     52      36757
>  6 6_Colorado               171      0       4939
>  7 7_Connecticut           1713      8       3501
>  8 8_Delaware               381      0        873
>  9 9_District of Columbia    45      0        592
> 10 10_Florida              2915     23      18328
> # … with 41 more rows
```

---
## Creating new variables

```r
h1n1 <- h1n1 %>%
  separate(col = state_id, into = c("id", "State"), sep = "_")
h1n1 %>% print(n = 10)
```

```
> # A tibble: 51 x 5
>    id    State                Cases Deaths Population
>    <chr> <chr>                <int>  <int>      <dbl>
>  1 1     Alabama                477      0       4662
>  2 2     Alaska                 272      0        686
>  3 3     Arizona                947     15       6500
>  4 4     Arkansas               131      0       2855
>  5 5     California            3161     52      36757
>  6 6     Colorado               171      0       4939
>  7 7     Connecticut           1713      8       3501
>  8 8     Delaware               381      0        873
>  9 9     District of Columbia    45      0        592
> 10 10    Florida               2915     23      18328
> # … with 41 more rows
```
…
