Biostatistics Module
…
```r
dt %>% print(n = 9)
```

```
> # A tibble: 12 x 2
>   x     y    
>   <fct> <fct>
> 1 A     D    
> 2 A     D    
> 3 A     D    
> 4 A     E    
> 5 A     E    
> 6 A     F    
> 7 B     D    
> 8 B     D    
> 9 B     D    
> # ... with 3 more rows
```
…
---
## Grouping levels

- Note about **`fct_lump()`**: if `n` (and `prop`) are missing, `fct_lump` lumps together the least frequent levels into "other", while ensuring that "other" is still the smallest level

Together with **`dplyr`**, we have

```r
dt %>% 
  mutate(y = fct_lump(y, 5, 'other')) %>% 
  print(n = 10)
```

```
> # A tibble: 12 x 2
>    x     y    
>    <fct> <fct>
>  1 A     D    
>  2 A     D    
>  3 A     D    
>  4 A     E    
>  5 A     E    
>  6 A     Other
>  7 B     D    
>  8 B     D    
>  9 B     D    
> 10 B     E    
> # ... with 2 more rows
```
…
