Biostatistics Module
…
---
## Model - residuals

```r
library(broom)
fit_resid <- augment(fit) %>% 
  mutate(index = 1:n())
fit_resid
```

```
> # A tibble: 189 x 12
>   LOW     AGE   LWT RACE  .fitted .se.fit .resid   .hat
>   <fct> <int> <int> <fct>   <dbl>   <dbl>  <dbl>  <dbl>
> 1 1        28   120 3      -0.687   0.321   1.48 0.0230
> 2 1        29   130 1      -1.30    0.298   1.76 0.0150
> 3 1        34   187 2      -1.24    0.627   1.73 0.0684
> 4 1        25   105 3      -0.395   0.289   1.35 0.0201
> 5 1        25    85 3      -0.108   0.354   1.22 0.0312
> # … with 184 more rows, and 4 more variables: .sigma <dbl>,
> #   .cooksd <dbl>, .std.resid <dbl>, index <int>
```
…
