Biostatistics Module
…
---
## Data

```r
crabs <- readxl::read_xlsx("./data/crabs.xlsx"); crabs
```

```
> # A tibble: 173 x 5
>   color spine_condition weight carapace_width satellites
>   <dbl>           <dbl>  <dbl>          <dbl>      <dbl>
> 1     2               3   28.3           3.05          8
> 2     3               3   26             2.6           4
> 3     3               3   25.6           2.15          0
> 4     4               2   21             1.85          0
> 5     2               3   29             3             1
> # ... with 168 more rows
```
…
---
## Modeling the rate

```r
coef <- broom::tidy(fit_gr, exponentiate = T, conf.int = T)
coef[,1:5]
```

```
> # A tibble: 6 x 5
>   term             estimate std.error statistic  p.value
>   <chr>               <dbl>     <dbl>     <dbl>    <dbl>
> 1 (Intercept)         4.40      0.145     10.2  2.36e-24
> 2 color2              0.813     0.167     -1.24 2.15e- 1
> 3 color3              0.559     0.195     -2.98 2.88e- 3
> 4 color4              0.506     0.226     -3.02 2.55e- 3
> 5 spine_condition2    0.607     0.203     -2.46 1.40e- 2
> # ... with 1 more row
```

```r
coef[,c(1, 6:7)]
```

```
> # A tibble: 6 x 3
>   term             conf.low conf.high
>   <chr>               <dbl>     <dbl>
> 1 (Intercept)         3.26      5.78 
> 2 color2              0.592     1.14 
> 3 color3              0.383     0.824
> 4 color4              0.324     0.787
> 5 spine_condition2    0.400     0.890
> # ... with 1 more row
```
…
