NEEDBios
…
- **dietox** data available
  
  - Growth curves of pigs in a 3x3 factorial experiment
  
  - interest in modeling pig's weight as a function of time, vitamin E, and Copper supplement dosage

```r
library(geepack)
library(tidyverse)
as_tibble(dietox)
```

```
> # A tibble: 861 x 8
>   Pig   Evit    Cu    Litter Start Weight  Feed  Time
>   <fct> <fct>   <fct> <fct>  <dbl>  <dbl> <dbl> <int>
> 1 4601  Evit000 Cu000 1       26.5   26.5 NA        1
> 2 4601  Evit000 Cu000 1       26.5   27.6  5.20     2
> 3 4601  Evit000 Cu000 1       26.5   36.5 17.6      3
> 4 4601  Evit000 Cu000 1       26.5   40.3 28.5      4
> 5 4601  Evit000 Cu000 1       26.5   49.1 45.2      5
> # … with 856 more rows
```
  
---
## GEE - package and data

```r
dietox %>%
  group_by(Pig) %>%
  count() %>%
  arrange(n) %>%
  print(n = 10)
```

```
> # A tibble: 72 x 2
> # Groups:   Pig [72]
>    Pig       n
>    <fct> <int>
>  1 5524     11
>  2 5527     11
>  3 5528     11
>  4 4601     12
>  5 4602     12
>  6 4603     12
>  7 4605     12
>  8 4641     12
>  9 4643     12
> 10 4645     12
> # … with 62 more rows
```
---
## GEE - descriptive

Marginal covariance

```r
pig_wide <- dietox %>%
  dplyr::select(Pig, Weight, Time) %>% 
  spread(Time, Weight) %>% 
  as_tibble()
pig_wide
```

```
> # A tibble: 72 x 13
>   Pig     `1`   `2`   `3`   `4`   `5`   `6`   `7`   `8`
>   <fct> <dbl> <dbl> <dbl> <dbl> <dbl> <dbl> <dbl> <dbl>
> 1 4601   26.5  27.6  36.5  40.3  49.1  55.4  59.6  67  
> 2 4602   28.3  30.1  38.3  44.5  51.6  57.6  65    73  
> 3 4603   27.6  30.6  38.7  47.2  54.1  61.5  68.5  75.2
> 4 4605   31.5  34.8  40.7  47.7  55.9  62.2  70.7  78  
> 5 4641   27.1  33    42.5  50.1  56.5  63    72.5  80.5
> # … with 67 more rows, and 4 more variables: `9` <dbl>,
> #   `10` <dbl>, `11` <dbl>, `12` <dbl>
```
…
```
> # A tibble: 1 x 6
>   sigma logLik   AIC   BIC REMLcrit df.residual
>   <dbl>  <dbl> <dbl> <dbl>    <dbl>       <int>
> 1  3.37 -2396. 4809. 4847.    4793.         853
```

```r
broom.mixed::tidy(mm1, conf.int = T)
```

```
> # A tibble: 8 x 10
>   effect group term  estimate std.error statistic    df
>   <chr>  <chr> <chr>    <dbl>     <dbl>     <dbl> <dbl>
> 1 fixed  <NA>  (Int…   15.1      1.75       8.61   69.1
> 2 fixed  <NA>  Time     6.94     0.0334   208.    788. 
> 3 fixed  <NA>  Evit…    2.04     1.86       1.10   67.0
> 4 fixed  <NA>  Evit…   -1.11     1.84      -0.602  67.0
> 5 fixed  <NA>  CuCu…   -0.765    1.84      -0.415  67.0
> # … with 3 more rows, and 3 more variables: p.value <dbl>,
> #   conf.low <dbl>, conf.high <dbl>
```
…
